{
  "Data": {
    "DefaultConnection": {
      "ConnectionString": "Server=(localdb)\\mssqllocaldb;Database=aspnet5-ProjectDemo-196fb539-7f2d-4d91-8df1-54423b5943c8;Trusted_Connection=True;MultipleActiveResultSets=true"
    }
  }
}
