﻿{
  "webroot": "wwwroot",
  "userSecretsId": "aspnet5-ProjectDemo-196fb539-7f2d-4d91-8df1-54423b5943c8",
  "version": "1.0.0-*",

  "dependencies": {
    "EntityFramework.Commands": "7.0.0-beta7",
    "EntityFramework.SqlServer": "7.0.0-beta7",
    "Microsoft.AspNet.Authentication.Cookies": "1.0.0-beta7",
    "Microsoft.AspNet.Authentication.Facebook": "1.0.0-beta7",
    "Microsoft.AspNet.Authentication.Google": "1.0.0-beta7",
    "Microsoft.AspNet.Authentication.MicrosoftAccount": "1.0.0-beta7",
    "Microsoft.AspNet.Authentication.Twitter": "1.0.0-beta7",
    "Microsoft.AspNet.Diagnostics": "1.0.0-beta7",
    "Microsoft.AspNet.Diagnostics.Entity": "7.0.0-beta7",
    "Microsoft.AspNet.Identity.EntityFramework": "3.0.0-beta7",
    "Microsoft.AspNet.Mvc": "6.0.0-beta7",
    "Microsoft.AspNet.Mvc.TagHelpers": "6.0.0-beta7",
    "Microsoft.AspNet.Server.IIS": "1.0.0-beta7",
    "Microsoft.AspNet.Server.WebListener": "1.0.0-beta7",
    "Microsoft.AspNet.StaticFiles": "1.0.0-beta7",
    "Microsoft.AspNet.Tooling.Razor": "1.0.0-beta7",
    "Microsoft.Framework.Configuration.Abstractions": "1.0.0-beta7",
    "Microsoft.Framework.Configuration.Json": "1.0.0-beta7",
    "Microsoft.Framework.Configuration.UserSecrets": "1.0.0-beta7",
    "Microsoft.Framework.Logging": "1.0.0-beta7",
    "Microsoft.Framework.Logging.Console": "1.0.0-beta7",
    "Microsoft.Framework.Logging.Debug" : "1.0.0-beta7",
    "Microsoft.VisualStudio.Web.BrowserLink.Loader": "14.0.0-beta7"
  },

  "commands": {
    "web": "Microsoft.AspNet.Hosting --config hosting.ini",
    "ef": "EntityFramework.Commands"
  },

  "frameworks": {
    "dnx451": { },
    "dnxcore50": { }
  },

  "exclude": [
    "wwwroot",
    "node_modules",
    "bower_components"
  ],
  "publishExclude": [
    "node_modules",
    "bower_components",
    "**.xproj",
    "**.user",
    "**.vspscc"
  ],
  "scripts": {
    "prepublish": [ "npm install", "bower install", "gulp clean", "gulp min" ]
  }
}
